<?xml version="1.0" encoding="UTF-8" standalone="no"?>
<svg
   xmlns:dc="http://purl.org/dc/elements/1.1/"
   xmlns:cc="http://creativecommons.org/ns#"
   xmlns:rdf="http://www.w3.org/1999/02/22-rdf-syntax-ns#"
   xmlns:svg="http://www.w3.org/2000/svg"
   xmlns="http://www.w3.org/2000/svg"
   xmlns:xlink="http://www.w3.org/1999/xlink"
   xmlns:sodipodi="http://sodipodi.sourceforge.net/DTD/sodipodi-0.dtd"
   xmlns:inkscape="http://www.inkscape.org/namespaces/inkscape"
   version="1.1"
   viewBox="0 0 128 128"
   id="svg6"
   sodipodi:docname="icon.svg"
   inkscape:version="0.92.2 (5c3e80d, 2017-08-06)">
  <metadata
     id="metadata12">
    <rdf:RDF>
      <cc:Work
         rdf:about="">
        <dc:format>image/svg+xml</dc:format>
        <dc:type
           rdf:resource="http://purl.org/dc/dcmitype/StillImage" />
        <dc:title></dc:title>
      </cc:Work>
    </rdf:RDF>
  </metadata>
  <defs
     id="defs10">
    <linearGradient
       id="linearGradient4158">
      <stop
         id="stop4160"
         style="stop-color:#457cca;stop-opacity:1;"
         offset="0" />
      <stop
         id="stop4162"
         style="stop-color:#4d6a98;stop-opacity:1;"
         offset="1" />
    </linearGradient>
    <linearGradient
       x1="31"
       y1="64"
       x2="31"
       y2="2"
       id="linearGradient3984-8-7-3"
       gradientUnits="userSpaceOnUse"
       gradientTransform="matrix(0.82258065,0,0,0.82258065,6.354839,8.5887097)">
      <stop
         id="stop3099-1-3-0"
         style="stop-color:#b6b6b6;stop-opacity:1;"
         offset="0" />
      <stop
         id="stop3875-7-3-2"
         style="stop-color:#d5d5d5;stop-opacity:1;"
         offset="0.5" />
      <stop
         id="stop3873-1-0-8"
         style="stop-color:#cccccc;stop-opacity:1"
         offset="0.51612902" />
      <stop
         id="stop3101-06-4-6"
         style="stop-color:#d7d7d7;stop-opacity:1;"
         offset="1" />
    </linearGradient>
    <linearGradient
       id="linearGradient8728">
      <stop
         style="stop-color:#a5a5a5;stop-opacity:1"
         offset="0"
         id="stop8730" />
      <stop
         id="stop8732"
         offset="0.42666352"
         style="stop-color:#787878;stop-opacity:1" />
      <stop
         style="stop-color:#a4a4a4;stop-opacity:1"
         offset="0.64195716"
         id="stop8734" />
      <stop
         id="stop8736"
         offset="0.78841871"
         style="stop-color:#7f7f7f;stop-opacity:1" />
      <stop
         style="stop-color:#9b9b9b;stop-opacity:1"
         offset="1"
         id="stop8738" />
    </linearGradient>
    <linearGradient
       id="linearGradient7798">
      <stop
         id="stop7800"
         offset="0"
         style="stop-color:#b2b2b2;stop-opacity:1" />
      <stop
         style="stop-color:#787878;stop-opacity:1"
         offset="0.42666352"
         id="stop7802" />
      <stop
         id="stop7804"
         offset="0.64195716"
         style="stop-color:#bfbfbf;stop-opacity:1" />
      <stop
         style="stop-color:#ffffff;stop-opacity:1"
         offset="0.78841871"
         id="stop7806" />
      <stop
         id="stop7808"
         offset="1"
         style="stop-color:#ececec;stop-opacity:1" />
    </linearGradient>
    <linearGradient
       id="linearGradient5602-41-4">
      <stop
         offset="0"
         style="stop-color:#d4d0c6;stop-opacity:1;"
         id="stop5604-6-7" />
      <stop
         id="stop4143"
         style="stop-color:#c4beb1;stop-opacity:1;"
         offset="0.49165267" />
      <stop
         id="stop4141"
         style="stop-color:#bcb6a9;stop-opacity:1;"
         offset="0.51415551" />
      <stop
         offset="1"
         style="stop-color:#afa899;stop-opacity:1;"
         id="stop5606-8-7" />
    </linearGradient>
    <clipPath
       clipPathUnits="userSpaceOnUse"
       id="clipPath5354">
      <path
         d="M 64,127 C 16.4,127 1.4,112 1.4,64.4 1.4,17 16.4,2 64,1.8 111.4,1.644 126.4,17 126.6,64.4 126.757,112 111.4,127 64,127"
         id="path5356"
         style="fill:#d1cdc3;fill-opacity:1"
         inkscape:connector-curvature="0" />
    </clipPath>
    <clipPath
       clipPathUnits="userSpaceOnUse"
       id="clipPath5892">
      <path
         inkscape:connector-curvature="0"
         d="m 63.9994,126.60059 c -47.6,0 -62.5999996,-15 -62.5999996,-62.600005 0,-47.399999 14.9999996,-62.3999977 62.5999996,-62.5999977 47.40001,-0.156 62.40001,15.1999987 62.60001,62.5999977 0.157,47.600005 -15.2,62.600005 -62.60001,62.600005"
         id="path5894"
         style="fill:#d1cdc3;fill-opacity:1" />
    </clipPath>
    <inkscape:path-effect
       is_visible="true"
       id="path-effect3839"
       effect="spiro" />
    <inkscape:path-effect
       is_visible="true"
       id="path-effect3839-7"
       effect="spiro" />
    <inkscape:path-effect
       is_visible="true"
       id="path-effect3839-7-1"
       effect="spiro" />
    <inkscape:path-effect
       is_visible="true"
       id="path-effect3839-7-1-4"
       effect="spiro" />
    <inkscape:path-effect
       is_visible="true"
       id="path-effect3839-7-1-4-4"
       effect="spiro" />
    <linearGradient
       y2="22"
       x2="44"
       y1="22"
       x1="48.98996"
       gradientUnits="userSpaceOnUse"
       id="linearGradient3223"
       xlink:href="#linearGradient3980"
       inkscape:collect="always"
       gradientTransform="matrix(1.4399999,0,0,1.4397603,17.894273,4.6364228)" />
    <linearGradient
       id="linearGradient3980"
       inkscape:collect="always">
      <stop
         id="stop3982"
         offset="0"
         style="stop-color:#a5a5a5;stop-opacity:1" />
      <stop
         style="stop-color:#939393;stop-opacity:1"
         offset="0.53657001"
         id="stop3988" />
      <stop
         id="stop3984"
         offset="1"
         style="stop-color:#ffffff;stop-opacity:1" />
    </linearGradient>
    <linearGradient
       y2="18"
       x2="45"
       y1="18"
       x1="48"
       gradientUnits="userSpaceOnUse"
       id="linearGradient3221"
       xlink:href="#linearGradient3992"
       inkscape:collect="always"
       gradientTransform="matrix(1.4400016,0,0,1.6334676,17.881721,1.781359)" />
    <linearGradient
       id="linearGradient3992"
       inkscape:collect="always">
      <stop
         id="stop3994"
         offset="0"
         style="stop-color:#865d5d;stop-opacity:1" />
      <stop
         id="stop3996"
         offset="1"
         style="stop-color:#c37373;stop-opacity:1" />
    </linearGradient>
  </defs>
  <sodipodi:namedview
     pagecolor="#ffffff"
     bordercolor="#666666"
     borderopacity="1"
     objecttolerance="10"
     gridtolerance="10"
     guidetolerance="10"
     inkscape:pageopacity="0"
     inkscape:pageshadow="2"
     inkscape:window-width="1280"
     inkscape:window-height="970"
     id="namedview8"
     showgrid="false"
     inkscape:zoom="2.6074563"
     inkscape:cx="77.09333"
     inkscape:cy="55.429898"
     inkscape:window-x="0"
     inkscape:window-y="28"
     inkscape:window-maximized="1"
     inkscape:current-layer="svg6" />
  <g
     id="g3043"
     inkscape:export-filename="folder.png"
     inkscape:export-xdpi="90"
     inkscape:export-ydpi="90"
     transform="translate(45.385024,-132.92554)" />
  <g
     id="scalable"
     transform="matrix(1.0385892,0,0,1.0385892,1260.7322,1745.8043)"
     inkscape:label="#g3701"
     style="fill:#ffffff" />
  <path
     style="fill:#e3e2db;fill-opacity:1"
     id="path5184"
     d="m 63.9994,126.60059 c -47.6,0 -62.5999997,-15 -62.5999997,-62.600005 0,-47.399999 14.9999997,-62.3999977 62.5999997,-62.5999977 47.40001,-0.156 62.40001,15.1999987 62.60001,62.5999977 0.157,47.600005 -15.2,62.600005 -62.60001,62.600005"
     inkscape:connector-curvature="0"
     inkscape:export-filename="/home/sunjar/Рабочий стол/128.png"
     inkscape:export-xdpi="98.146042"
     inkscape:export-ydpi="98.146042" />
  <g
     id="g5864"
     clip-path="url(#clipPath5892)"
     inkscape:export-filename="/home/sunjar/Рабочий стол/128.png"
     inkscape:export-xdpi="98.146042"
     inkscape:export-ydpi="98.146042">
    <rect
       style="color:#000000;display:inline;overflow:visible;visibility:visible;opacity:1;fill:#870000;fill-opacity:0.21819787;fill-rule:nonzero;stroke:none;stroke-width:4.27762794;marker:none;enable-background:accumulate"
       id="rect10203"
       width="1.7910008"
       height="115.37679"
       x="22.806982"
       y="6.3116083" />
    <rect
       transform="rotate(-90)"
       ry="0"
       rx="0"
       y="-6.7350698"
       x="-106.53297"
       height="138.40201"
       width="1.9555387"
       id="rect10209"
       style="color:#000000;display:inline;overflow:visible;visibility:visible;opacity:1;fill:#234b76;fill-opacity:0.26943461;fill-rule:nonzero;stroke:none;stroke-width:4.70041609;marker:none;enable-background:accumulate" />
    <rect
       style="color:#000000;display:inline;overflow:visible;visibility:visible;opacity:1;fill:#234b76;fill-opacity:0.26943461;fill-rule:nonzero;stroke:none;stroke-width:4.70041609;marker:none;enable-background:accumulate"
       id="rect10205"
       width="1.9555387"
       height="138.40201"
       x="-71.333267"
       y="-6.7350698"
       rx="0"
       ry="0"
       transform="rotate(-90)" />
    <rect
       transform="rotate(-90)"
       ry="0"
       rx="0"
       y="-6.7350698"
       x="-94.799736"
       height="138.40201"
       width="1.9555387"
       id="rect10211"
       style="color:#000000;display:inline;overflow:visible;visibility:visible;opacity:1;fill:#234b76;fill-opacity:0.26943461;fill-rule:nonzero;stroke:none;stroke-width:4.70041609;marker:none;enable-background:accumulate" />
    <rect
       style="color:#000000;display:inline;overflow:visible;visibility:visible;opacity:1;fill:#234b76;fill-opacity:0.26943461;fill-rule:nonzero;stroke:none;stroke-width:4.70041609;marker:none;enable-background:accumulate"
       id="rect10207"
       width="1.9555387"
       height="138.40201"
       x="-59.600037"
       y="-6.7350698"
       rx="0"
       ry="0"
       transform="rotate(-90)" />
    <rect
       style="color:#000000;display:inline;overflow:visible;visibility:visible;opacity:1;fill:#234b76;fill-opacity:0.26943461;fill-rule:nonzero;stroke:none;stroke-width:4.70041609;marker:none;enable-background:accumulate"
       id="rect10213"
       width="1.9555387"
       height="138.40201"
       x="-83.066505"
       y="-6.7350698"
       rx="0"
       ry="0"
       transform="rotate(-90)" />
    <rect
       style="color:#000000;display:inline;overflow:visible;visibility:visible;opacity:1;fill:#234b76;fill-opacity:0.26943461;fill-rule:nonzero;stroke:none;stroke-width:4.70041609;marker:none;enable-background:accumulate"
       id="rect10215"
       width="1.9555387"
       height="138.40201"
       x="-47.866806"
       y="-6.7350698"
       rx="0"
       ry="0"
       transform="rotate(-90)" />
    <rect
       transform="rotate(-90)"
       ry="0"
       rx="0"
       y="-6.7350698"
       x="-36.133575"
       height="138.40201"
       width="1.9555387"
       id="rect10183"
       style="color:#000000;display:inline;overflow:visible;visibility:visible;opacity:1;fill:#234b76;fill-opacity:0.26943461;fill-rule:nonzero;stroke:none;stroke-width:4.70041609;marker:none;enable-background:accumulate" />
    <rect
       style="color:#000000;display:inline;overflow:visible;visibility:visible;opacity:1;fill:#234b76;fill-opacity:0.26943461;fill-rule:nonzero;stroke:none;stroke-width:4.70041609;marker:none;enable-background:accumulate"
       id="rect10205-9"
       width="1.9555387"
       height="138.40201"
       x="-24.400337"
       y="-6.7350698"
       rx="0"
       ry="0"
       transform="rotate(-90)" />
    <rect
       style="color:#000000;display:inline;overflow:visible;visibility:visible;opacity:1;fill:#234b76;fill-opacity:0.26943461;fill-rule:nonzero;stroke:none;stroke-width:4.70041609;marker:none;enable-background:accumulate"
       id="rect10207-4"
       width="1.9555387"
       height="138.40201"
       x="-12.667107"
       y="-6.7350698"
       rx="0"
       ry="0"
       transform="rotate(-90)" />
    <rect
       style="color:#000000;display:inline;overflow:visible;visibility:visible;opacity:1;fill:#234b76;fill-opacity:0.26943461;fill-rule:nonzero;stroke:none;stroke-width:4.70041609;marker:none;enable-background:accumulate"
       id="rect10215-6"
       width="1.9555387"
       height="138.40201"
       x="-118.2662"
       y="-6.7350698"
       rx="0"
       ry="0"
       transform="rotate(-90)" />
  </g>
  <g
     id="g6400"
     transform="rotate(35,58.529534,77.763229)"
     inkscape:export-filename="/home/sunjar/Рабочий стол/128.png"
     inkscape:export-xdpi="98.146042"
     inkscape:export-ydpi="98.146042">
    <rect
       transform="matrix(0.9999948,0.00322552,-0.0025067,0.99999686,0,0)"
       style="color:#000000;display:inline;overflow:visible;visibility:visible;fill:url(#linearGradient3221);fill-opacity:1;fill-rule:nonzero;stroke:none;stroke-width:1.53368711;marker:none;enable-background:accumulate"
       id="rect4038"
       width="10.08001"
       height="11.434273"
       x="79.801788"
       y="26.283371"
       rx="2.8800032"
       ry="3.2669353" />
    <rect
       transform="rotate(0.1628929)"
       style="color:#000000;display:inline;overflow:visible;visibility:visible;fill:url(#linearGradient3223);fill-opacity:1;fill-rule:nonzero;stroke:none;stroke-width:1.43988013;marker:none;enable-background:accumulate"
       id="rect4040"
       width="10.079999"
       height="4.3192811"
       x="79.814262"
       y="33.431644" />
    <path
       inkscape:connector-curvature="0"
       id="rect3792"
       d="m 79.706825,38.00635 v 53.802696 h 10.07996 V 38.00635 Z"
       style="fill:#267767;fill-opacity:1;fill-rule:evenodd;stroke:none;stroke-width:0.14435984" />
    <path
       sodipodi:nodetypes="ccccc"
       inkscape:connector-curvature="0"
       id="rect3792-8"
       d="m 79.706825,91.809046 3.36006,10.914574 h 3.35995 l 3.35995,-10.914574 z"
       style="fill:#e9c6af;fill-opacity:1;fill-rule:evenodd;stroke:none;stroke-width:0.18774439" />
    <path
       style="fill:#333333;fill-opacity:1;fill-rule:evenodd;stroke:none;stroke-width:0.18774439"
       d="m 83.066885,102.72362 1.67996,6.30253 v 0 l 1.67999,-6.30253 z"
       id="path3831"
       inkscape:connector-curvature="0"
       sodipodi:nodetypes="ccccc" />
  </g>
</svg>
